CalculationMode = go
GOMethod = fire
GOFireMass = 0.01
ExperimentalFeatures = yes

dist = 3.0

%Coordinates
'Na'  | 0 | 0 | -dist 
'Na'  | 0 | 0 |  dist 
%

FromScratch = yes
GOCenter = yes

FilterPotentials = filter_none

MixField = density
